module humanifyme/start

go 1.20

require (
	github.com/davecgh/go-spew v1.1.1
	github.com/gofiber/fiber/v2 v2.46.0
	github.com/ilyakaznacheev/cleanenv v1.4.2
	golang.org/x/exp v0.0.0-20230522175609-2e198f4a06a1
	gorm.io/driver/postgres v1.5.2
	gorm.io/gorm v1.25.1
)

require (
	github.com/BurntSushi/toml v1.3.0 // indirect
	github.com/andybalholm/brotli v1.0.5 // indirect
	github.com/go-gormigrate/gormigrate/v2 v2.1.0 // indirect
	github.com/google/uuid v1.3.0 // indirect
	github.com/jackc/pgpassfile v1.0.0 // indirect
	github.com/jackc/pgservicefile v0.0.0-20221227161230-091c0ba34f0a // indirect
	github.com/jackc/pgx/v5 v5.3.1 // indirect
	github.com/jinzhu/inflection v1.0.0 // indirect
	github.com/jinzhu/now v1.1.5 // indirect
	github.com/joho/godotenv v1.5.1 // indirect
	github.com/klauspost/compress v1.16.3 // indirect
	github.com/mattn/go-colorable v0.1.13 // indirect
	github.com/mattn/go-isatty v0.0.18 // indirect
	github.com/mattn/go-runewidth v0.0.14 // indirect
	github.com/philhofer/fwd v1.1.2 // indirect
	github.com/rivo/uniseg v0.2.0 // indirect
	github.com/savsgio/dictpool v0.0.0-20221023140959-7bf2e61cea94 // indirect
	github.com/savsgio/gotils v0.0.0-20230208104028-c358bd845dee // indirect
	github.com/tinylib/msgp v1.1.8 // indirect
	github.com/valyala/bytebufferpool v1.0.0 // indirect
	github.com/valyala/fasthttp v1.47.0 // indirect
	github.com/valyala/tcplisten v1.0.0 // indirect
	golang.org/x/crypto v0.9.0 // indirect
	golang.org/x/sys v0.8.0 // indirect
	golang.org/x/text v0.9.0 // indirect
	gopkg.in/yaml.v3 v3.0.1 // indirect
	olympos.io/encoding/edn v0.0.0-20201019073823-d3554ca0b0a3 // indirect
)
